{
  "$schema": "http://adaptivecards.io/schemas/adaptive-card.json",
  "type": "AdaptiveCard",
  "version": "1.0",
  "body": [
    {
      "type": "TextBlock",
      "text": "[status], Thank You ",
      "size": "Large",
      "weight": "Bolder",
      "color": "Good"
    }
  ]
}